<svg xmlns="http://www.w3.org/2000/svg" width="31" height="30" viewBox="0 0 31 30">
  <g fill="none" fill-rule="evenodd">
    <rect width="14" height="3" x="18.01" y="22.51" fill="#1E2E5E" transform="rotate(45 25.01 24.01)"/>
    <circle cx="12.5" cy="12.5" r="11" stroke="#1E2E5E" stroke-width="3"/>
  </g>
</svg>
